Preparación de Datos
…
respuestas_por_ola

# A tibble: 70 × 4
   ola   variable    n_respuestas pct_respuestas
   <fct> <chr>              <int>          <dbl>
 1 Ola 1 c05_total           1176           10.2
 2 Ola 1 c38                 1176           10.2
 3 Ola 1 m0_edad             1176           10.2
 4 Ola 1 egp7                 892            7.7
 5 Ola 1 trato_digno         1176           10.2
 6 Ola 1 indigena            1166           10.1
 7 Ola 1 c15                 1154           10  
 8 Ola 1 c32_01_ord          1173           10.2
 9 Ola 1 Generacion          1176           10.2
10 Ola 1 total               1176           10.2
# ℹ 60 more rows
…
